…
While doing an EDA we will be encountering both univariate analysis and multivariate analysis

Creating a Dataframe for Data

We also have to remove the dollar sign and comma so that the data can be explored as a numeric variable

diamond_selection$Price <- gsub(",", "", diamond_selection$Price)

diamond_selection$Price <- gsub("\\$", "", diamond_selection$Price)

diamond_selection <- na.omit(diamond_selection)

print(diamond_selection)

## # A tibble: 440 × 9
##    Carat Colour Clarity Cut   Certification Polish Symmetry Price Wholesaler
##    <dbl> <chr>  <chr>   <chr> <chr>         <chr>  <chr>    <chr>      <dbl>
##  1  0.92 I      SI2     G     AGS           V      V        3000           1
##  2  0.92 I      SI2     V     AGS           G      G        3000           1
##  3  0.82 F      SI2     I     GIA           X      X        3004           1
##  4  0.81 G      SI1     I     GIA           X      V        3004           1
##  5  0.9  J      VS2     V     GIA           V      V        3006           1
##  6  0.87 F      SI2     I     AGS           G      V        3007           1
##  7  0.8  D      SI2     I     GIA           V      V        3008           1
##  8  0.84 F      SI1     G     GIA           V      V        3010           1
##  9  0.8  D      SI2     V     GIA           V      V        3012           1
## 10  0.8  D      SI2     V     GIA           V      X        3012           1
## # … with 430 more rows
…
