…
“happy” dataset from productplots package

?happy
names(happy)

##  [1] "id"      "happy"   "year"    "age"     "sex"     "marital" "degree" 
##  [8] "finrela" "health"  "wtssall"

Save dataset to tibble named “df” (for “dataframe”)

df <- happy %>%
  as_tibble() %>%
  print()

## # A tibble: 51,020 × 10
##       id happy          year   age sex    marital  degree finrela health wtssall
##    <dbl> <fct>         <dbl> <dbl> <fct>  <fct>    <fct>  <fct>   <fct>    <dbl>
##  1     1 not too happy  1972    23 female never m… bache… average good     0.445
##  2     2 not too happy  1972    70 male   married  lt hi… above … fair     0.889
##  3     3 pretty happy   1972    48 female married  high … average excel…   0.889
##  4     4 not too happy  1972    27 female married  bache… average good     0.889
##  5     5 pretty happy   1972    61 female married  high … above … good     0.889
##  6     6 pretty happy   1972    26 male   never m… high … above … good     0.445
##  7     7 not too happy  1972    28 male   divorced high … above … excel…   0.445
##  8     8 not too happy  1972    27 male   never m… bache… average good     0.445
##  9     9 pretty happy   1972    21 female never m… high … average excel…   0.445
## 10    10 pretty happy   1972    30 female married  high … below … fair     0.889
## # … with 51,010 more rows

Delete id and wtssall, which is a weighting variable that doesn’t change results appreciably

df %<>%
  select(happy:health) %>%
  print()

## # A tibble: 51,020 × 8
##    happy          year   age sex    marital       degree         finrela  health
##    <fct>         <dbl> <dbl> <fct>  <fct>         <fct>          <fct>    <fct> 
##  1 not too happy  1972    23 female never married bachelor       average  good  
##  2 not too happy  1972    70 male   married       lt high school above a… fair  
##  3 pretty happy   1972    48 female married       high school    average  excel…
##  4 not too happy  1972    27 female married       bachelor       average  good  
##  5 pretty happy   1972    61 female married       high school    above a… good  
##  6 pretty happy   1972    26 male   never married high school    above a… good  
##  7 not too happy  1972    28 male   divorced      high school    above a… excel…
##  8 not too happy  1972    27 male   never married bachelor       average  good  
##  9 pretty happy   1972    21 female never married high school    average  excel…
## 10 pretty happy   1972    30 female married       high school    below a… fair  
## # … with 51,010 more rows
…
<img src="{{< blogdown/postref >}}index_files/figure-html/unnamed-chunk-16-1.png" width="672" />

Create dichotmous married/not married variable

df %<>%
  mutate(
    married = ifelse(
      marital == "married",
      "yes",
      "no")
  ) %>%
  mutate(married = as.factor(married)) %>%
 print()

## # A tibble: 46,303 × 9
##    happy          year   age sex    marital       degree  finrela health married
##    <fct>         <dbl> <dbl> <fct>  <fct>         <fct>   <fct>   <fct>  <fct>  
##  1 not too happy  1972    23 female never married bachel… average good   no     
##  2 not too happy  1972    70 male   married       lt hig… above … fair   yes    
##  3 pretty happy   1972    48 female married       high s… average excel… yes    
##  4 not too happy  1972    27 female married       bachel… average good   yes    
##  5 pretty happy   1972    61 female married       high s… above … good   yes    
##  6 pretty happy   1972    26 male   never married high s… above … good   no     
##  7 not too happy  1972    28 male   divorced      high s… above … excel… no     
##  8 not too happy  1972    27 male   never married bachel… average good   no     
##  9 pretty happy   1972    21 female never married high s… average excel… no     
## 10 pretty happy   1972    30 female married       high s… below … fair   yes    
## # … with 46,293 more rows
…
Create dichotomous college/not variable for exploration

df %<>%
  mutate(
    college = ifelse(
      degree %in%
      c("junior college",
        "bachelor",
        "graduate"),
      "yes", "no")
  ) %>%
  print()

## # A tibble: 46,303 × 10
##    happy          year   age sex   marital degree finrela health married college
##    <fct>         <dbl> <dbl> <fct> <fct>   <fct>  <fct>   <fct>  <fct>   <chr>  
##  1 not too happy  1972    23 fema… never … bache… average good   no      yes    
##  2 not too happy  1972    70 male  married lt hi… above … fair   yes     no     
##  3 pretty happy   1972    48 fema… married high … average excel… yes     no     
##  4 not too happy  1972    27 fema… married bache… average good   yes     yes    
##  5 pretty happy   1972    61 fema… married high … above … good   yes     no     
##  6 pretty happy   1972    26 male  never … high … above … good   no      no     
##  7 not too happy  1972    28 male  divorc… high … above … excel… no      no     
##  8 not too happy  1972    27 male  never … bache… average good   no      yes    
##  9 pretty happy   1972    21 fema… never … high … average excel… no      no     
## 10 pretty happy   1972    30 fema… married high … below … fair   yes     no     
## # … with 46,293 more rows
…
    avg_fin = case_when(
      finrela %in%
        c("far below average",
          "below average") ~
          "no",
      finrela %in%
        c("average",
          "above average",
          "far above average") ~
          "yes",
      finrela == "NA" ~ "NA")
  ) %>%
  print()

## # A tibble: 46,303 × 11
##    happy  year   age sex   marital degree finrela health married college avg_fin
##    <fct> <dbl> <dbl> <fct> <fct>   <fct>  <fct>   <fct>  <fct>   <chr>   <chr>  
##  1 not …  1972    23 fema… never … bache… average good   no      yes     yes    
##  2 not …  1972    70 male  married lt hi… above … fair   yes     no      yes    
##  3 pret…  1972    48 fema… married high … average excel… yes     no      yes    
##  4 not …  1972    27 fema… married bache… average good   yes     yes     yes    
##  5 pret…  1972    61 fema… married high … above … good   yes     no      yes    
##  6 pret…  1972    26 male  never … high … above … good   no      no      yes    
##  7 not …  1972    28 male  divorc… high … above … excel… no      no      yes    
##  8 not …  1972    27 male  never … bache… average good   no      yes     yes    
##  9 pret…  1972    21 fema… never … high … average excel… no      no      yes    
## 10 pret…  1972    30 fema… married high … below … fair   yes     no      no     
## # … with 46,293 more rows
…
