…
View(diamond_selection)

IMPORTANT
When viewing the excel file that was uploaded to rstudio, I noticed that price was being percieved as a date. In order to combat this, I converted to excel file to a csv file and uploaded that data to github, then used the raw data to upload it back to rstudio. (Both the excel file and csv file can be viewed from the link above)

Save dataset to tibble named “df” (for “dataframe”)

df <- diamond_selection %>%
  as_tibble() %>%
  print()

## # A tibble: 441 × 9
##    Carat Colour Clarity Cut   Certification Polish Symmetry Price  Wholesaler
##    <dbl> <chr>  <chr>   <chr> <chr>         <chr>  <chr>    <chr>       <dbl>
##  1  0.92 I      SI2     G     AGS           V      V        $3,000          1
##  2  0.92 I      SI2     V     AGS           G      G        $3,000          1
##  3  0.82 F      SI2     I     GIA           X      X        $3,004          1
##  4  0.81 G      SI1     I     GIA           X      V        $3,004          1
##  5  0.9  J      VS2     V     GIA           V      V        $3,006          1
##  6  0.87 F      SI2     I     AGS           G      V        $3,007          1
##  7  0.8  D      SI2     I     GIA           V      V        $3,008          1
##  8  0.84 F      SI1     G     GIA           V      V        $3,010          1
##  9  0.8  D      SI2     V     GIA           V      V        $3,012          1
## 10  0.8  D      SI2     V     GIA           V      X        $3,012          1
## # … with 431 more rows
…
## [1] 440   9

train <- sample(440, 220)
head(train)

## [1] 324 167 129 418 299 270

Filter Out Wholesaler 3

df.1.2 <- df %>%
  filter(Wholesaler == 3)

df.1.2

## # A tibble: 200 × 9
##    Carat Colour Clarity Cut   Certification Polish Symmetry Price   Wholesaler
##    <dbl> <chr>  <chr>   <chr> <chr>         <chr>  <chr>    <chr>        <dbl>
##  1  0.09 D      SI1     X     IGI           G      G        $190.00          3
##  2  0.09 E      SI1     I     IGI           G      G        $160.00          3
##  3  0.09 F      SI1     I     IGI           V      G        $160.00          3
##  4  0.09 E      SI1     I     IGI           G      G        $180.00          3
##  5  0.09 E      VS1     I     IGI           V      G        $190.00          3
##  6  0.1  E      VS2     V     IGI           V      G        $330.00          3
##  7  0.1  F      VS1     V     IGI           G      G        $180.00          3
##  8  0.1  E      VS2     X     IGI           G      G        $180.00          3
##  9  0.1  F      VS2     X     IGI           V      G        $180.00          3
## 10  0.1  F      SI1     X     IGI           G      G        $190.00          3
## # … with 190 more rows
…
